{
    "id": "corePlaces-map",
    "version": 1,
    "resource": "v1/resource/resource/_version/1/",
    "status": "draft",
    "uri": "v1/resource/corePlaces-map/_version/1/",
	"properties": {
		 "id": {
            "type": "string",
            "key": true
        },
		"mapName": {
			"type": "string",
			"required": true
		},
		"imageData": {
			"type": "string",
			"required": true
		},
		"format": {
			"type": "string",
			"required": false		
		},
		"height": {
			"type": "number",
			"required": false		
		},
		"width": {
			"type": "number",
			"required": false
		},
		"offsets": {
			"type": "object",
			"object": {
				"properties": {
					"x0": {
						"type": "number"
					},
					"x1": {
						"type": "number"					
					},
					"y0": {
						"type": "number"					
					},
					"y1": {
						"type": "number"					
					}
				}
			}
		}
	}
}