{
    "id": "coreTaskList",
    "version": 1,
    "resource": "v1/resource/resource/_version/1/",
    "status": "draft",
    "uri": "v1/resource/coreTaskList/_version/1/",
    "properties": {
		"id": {
			"type": "string",
			"key": false,
			"#doc": "will be an empty string if this is a batch item."
        },
		"list": {
			"type": "choice",
			"choices": [
							"worklist",
							"watchlist",
							"notifications"
						],
			"key": true
		},		
		"uri": {
			"type": "ref",
			"resource": "v1/resource/coreTaskList/_version/1/",
			"required": true
		},	
		"taskListItems": {
			"type": "object[]",
			"object": {
				"properties": {
					"id": {
						"type": "string",
						"required": true
					},
					"cls": {
						"type": "string",
						"required": true
					},
					"clsId": {
						"type": "string",
						"required": true
					},	
					"lst": {
						"type": "string",
						"required": true
					},
					"lstId": {
						"type": "string",
						"required": true
					},						
				    "clsUri": {
						"type": "string",
						"required": false,
						"#doc": "If exists, is a URI to the underlying object resource"
					},
					"description": {
						"type": "string"
					},
					"priority": {
						"type": "string",
						"required": false						
					},
					"status": {
						"type": "string"
					},
					"location": {
						"type": "string",
						"required": false						
					},
					"modifiedDate": {
						"type": "string"
					},		
					"dueDate": {
						"type": "string",
						"required": false
					},	
					"isNew?": {
						"type": "boolean"
					},
					"isBatch?": {
						"type": "boolean"
					},
					"batchId": {
						"type": "string",
						"required": false,
						"#doc": "Only exists if isbatch? is true"					
					},
					"batchClass": {
						"type": "string",
						"required": false,
						"#doc": "Only exists if isbatch? is true"
					}
				}
			}
		}
	}
}	