{
    "id": "_coreUser._",
    "version": 1,
    "resource": "v1/resource/api/_version/1/",
    "uri": "v1/api/_coreUser._/_version/1/",
    "status": "draft",
    "route": [
        {
            "id": "_coreUser",
            "type": "static"
        },
        {
            "id": "id",
            "type": "dynamic"
        }
    ],
    "methods": {
        "get": {}
    },
    "response": {
        "resource": "v1/resource/_coreUser/_version/1/"
    },
    "connectivity": [
        {
            "handlerType": "tcpproxy",
            "tcpproxy": {
                "productType": "core",
                "core": {}
            }
        }
    ]
}